{
    "chain_name": "Zalts Black List",
    "urls": [
        {"url": "https://s3.i02.estaleiro.serpro.gov.br/blocklist/blocklist.txt", "delimiter": "\n"},
        {"url": "https://feeds.dshield.org/block.txt", "delimiter": "\t", "cidr": "/24"},
        {"url": "https://www.spamhaus.org/drop/drop.txt", "delimiter": "\\_"},
        {"url": "https://www.spamhaus.org/drop/edrop.txt", "delimiter": "\\_"},
        {"url": "https://sslbl.abuse.ch/blacklist/sslipblacklist.txt", "delimiter": "\r"},
        {"url": "https://raw.githubusercontent.com/cleytonferrari/Mikrotik-Blacklist/master/blocklist.txt", "delimiter": "\n"}
    ]
}
